Cornell College R Workshop 2022
…
uoe_art <- uoe_art %>%
  separate(title, into = c("title", "date"), sep = "\\(") %>%
  mutate(year = str_remove(date, "\\)") %>% 
  as.numeric()) %>%
  select(title, artist, year, date, description)

## Warning: Expected 2 pieces. Missing pieces filled with `NA` in 8 rows [22, 23,
## 26, 29, 37, 54, 70, 75].

## Warning in str_remove(date, "\\)") %>% as.numeric(): NAs introduced by coercion

uoe_art

## # A tibble: 80 x 5
##    title                        artist               year date   description    
##    <chr>                        <chr>               <dbl> <chr>  <chr>          
##  1 "Stretching Male Nude "      Valerie Donaldson      NA Circa~ Gained her Dip~
##  2 "Standing Male Nude "        Thomas T Robertson   1960 1960)  paper (fibre p~
##  3 "Wildflowers and Butterfly " John P Busby           NA Circa~ oil paint (pai~
##  4 "Light Around Limbo "        Joseph Glover        2016 2016)  paper (fibre p~
##  5 "Untitled "                  Sarah Sanford        2002 2002)  Screenprint an~
##  6 "Untitled - City Highrise "  William Gillon         NA Feb 1~ Abstract paint~
##  7 "Untitled "                  Elizabeth M. Hansen  1960 1960)  Painting of a ~
##  8 "Unknown "                   Andrew P. W. Conkie  1958 1958)  Semi-abstracte~
##  9 "Untitled "                  Richard Easson       1969 1969)  Portrait of a ~
## 10 "Abstract Composition "      James T Carlyle      1962 1962)  Possibly for a~
## # ... with 70 more rows
…
Who is the most commonly featured artist in the collection? Do you know them?

The count function will simply count the number of rows each artist has in our dataset.

uoe_art%>%
  count(artist, sort = TRUE)

## # A tibble: 69 x 2
##    artist                   n
##    <chr>                <int>
##  1 Unknown                  7
##  2 David Michie             2
##  3 Emma Gillies             2
##  4 Walter Miller            2
##  5 William Gillon           2
##  6 <NA>                     2
##  7 Alastair Flattely        1
##  8 Alastair Mack            1
##  9 Alexander Cree           1
## 10 Alexander F Mitchell     1
## # ... with 59 more rows
…
Turn all of our descriptions into tidy text, and look for commonalities

uoe_art %>%
  unnest_tokens(word, description) %>%
  count(word, sort = TRUE)

## # A tibble: 244 x 2
##    word         n
##    <chr>    <int>
##  1 in          37
##  2 of          26
##  3 and         22
##  4 from        18
##  5 paint       18
##  6 a           16
##  7 eca         15
##  8 with        15
##  9 material    14
## 10 the         14
## # ... with 234 more rows

Stop words

In computing, stop words are words which are filtered out before or after processing of natural language data (text).

They usually refer to the most common words in a language, but there is not a single list of stop words used by all natural language processing tools.

English stop words

get_stopwords()

## # A tibble: 175 x 2
##    word      lexicon 
##    <chr>     <chr>   
##  1 i         snowball
##  2 me        snowball
##  3 my        snowball
##  4 myself    snowball
##  5 we        snowball
##  6 our       snowball
##  7 ours      snowball
##  8 ourselves snowball
##  9 you       snowball
## 10 your      snowball
## # ... with 165 more rows

Spanish stop words

get_stopwords(language = "es")

## # A tibble: 308 x 2
##    word  lexicon 
##    <chr> <chr>   
##  1 de    snowball
##  2 la    snowball
##  3 que   snowball
##  4 el    snowball
##  5 en    snowball
##  6 y     snowball
##  7 a     snowball
##  8 los   snowball
##  9 del   snowball
## 10 se    snowball
## # ... with 298 more rows

Various lexicons

See ?get_stopwords for more info.

get_stopwords(source = "smart")

## # A tibble: 571 x 2
##    word        lexicon
##    <chr>       <chr>  
##  1 a           smart  
##  2 a's         smart  
##  3 able        smart  
##  4 about       smart  
##  5 above       smart  
##  6 according   smart  
##  7 accordingly smart  
##  8 across      smart  
##  9 actually    smart  
## 10 after       smart  
## # ... with 561 more rows

Back to looking for commonalities

uoe_art %>%
  unnest_tokens(word, description) %>%
  anti_join(stop_words)%>%
  count(word, sort = TRUE)

## Joining, by = "word"

## # A tibble: 189 x 2
##    word           n
##    <chr>      <int>
##  1 paint         18
##  2 eca           15
##  3 material      14
##  4 gained        13
##  5 diploma       11
##  6 figure        11
##  7 graphite      11
##  8 materials     10
##  9 substances    10
## 10 female         9
## # ... with 179 more rows

Top 20 common words in the descriptions

top20_words <- uoe_art %>%
  unnest_tokens(word, description) %>%
  anti_join(stop_words) %>%
  count(word) %>%
  top_n(20)

top20_words %>%
  arrange(desc(n))

## # A tibble: 21 x 2
##    word           n
##    <chr>      <int>
##  1 paint         18
##  2 eca           15
##  3 material      14
##  4 gained        13
##  5 diploma       11
##  6 figure        11
##  7 graphite      11
##  8 materials     10
##  9 substances    10
## 10 female         9
## # ... with 11 more rows
…
#Note: You may need to increase the size of your plot area to get this to display properly

N-grams... and BEYOND

N-grams are connections of words.

tidy_ngram <- uoe_art %>%
  unnest_tokens(input = description,output=bigram,token="ngrams",n=2)%>%   #<
  dplyr::filter(!is.na(bigram))

tidy_ngram

## # A tibble: 596 x 5
##    title                        artist              year date        bigram     
##    <chr>                        <chr>              <dbl> <chr>       <chr>      
##  1 "Stretching Male Nude "      Valerie Donaldson     NA Circa 1953) gained her 
##  2 "Stretching Male Nude "      Valerie Donaldson     NA Circa 1953) her diploma
##  3 "Stretching Male Nude "      Valerie Donaldson     NA Circa 1953) diploma fr~
##  4 "Stretching Male Nude "      Valerie Donaldson     NA Circa 1953) from eca   
##  5 "Stretching Male Nude "      Valerie Donaldson     NA Circa 1953) eca in     
##  6 "Stretching Male Nude "      Valerie Donaldson     NA Circa 1953) in 1953    
##  7 "Standing Male Nude "        Thomas T Robertson  1960 1960)       paper fibre
##  8 "Standing Male Nude "        Thomas T Robertson  1960 1960)       fibre prod~
##  9 "Wildflowers and Butterfly " John P Busby          NA Circa 1954) oil paint  
## 10 "Wildflowers and Butterfly " John P Busby          NA Circa 1954) paint paint
## # ... with 586 more rows
…
tidy_ngram %>%
  ____(bigram,sort = T)       #<

Let's use separate() from tidyr to remove stop words.

bigram_counts <- tidy_ngram %>%
  separate(bigram,c("word1","word2"),sep=" ") %>%
  filter(!word1 %in% stop_words$word,
         !word2 %in% stop_words$word) %>%
  count(word1, word2, sort = TRUE)

bigram_counts

## # A tibble: 121 x 3
##    word1     word2          n
##    <chr>     <chr>      <int>
##  1 material  materials     10
##  2 materials substances    10
##  3 paint     paint         10
##  4 inorganic material       9
##  5 graphite  mineral        7
##  6 mineral   inorganic      7
##  7 paint     coating        7
##  8 art       collection     5
##  9 female    figure         4
## 10 nude      female         4
## # ... with 111 more rows
…
